[0506/123205.374:ERROR:process_reader_win.cc(123)] NtOpenThread: {Access Denied} A process has requested access to an object, but has not been granted those access rights. (0xc0000022)
[0506/123205.389:ERROR:exception_snapshot_win.cc(88)] thread ID 12752 not found in process
[0506/123205.389:WARNING:crash_report_exception_handler.cc(62)] ProcessSnapshotWin::Initialize failed
[0506/124610.444:ERROR:process_reader_win.cc(123)] NtOpenThread: {Access Denied} A process has requested access to an object, but has not been granted those access rights. (0xc0000022)
[0506/124610.445:ERROR:exception_snapshot_win.cc(88)] thread ID 8408 not found in process
[0506/124610.445:WARNING:crash_report_exception_handler.cc(62)] ProcessSnapshotWin::Initialize failed
[0506/190609.345:ERROR:process_reader_win.cc(123)] NtOpenThread: {Access Denied} A process has requested access to an object, but has not been granted those access rights. (0xc0000022)
[0506/190609.382:ERROR:exception_snapshot_win.cc(88)] thread ID 8748 not found in process
[0506/190609.382:WARNING:crash_report_exception_handler.cc(62)] ProcessSnapshotWin::Initialize failed
[0507/185238.547:ERROR:process_reader_win.cc(123)] NtOpenThread: {Access Denied} A process has requested access to an object, but has not been granted those access rights. (0xc0000022)
[0507/185238.586:ERROR:exception_snapshot_win.cc(88)] thread ID 2528 not found in process
[0507/185238.586:WARNING:crash_report_exception_handler.cc(62)] ProcessSnapshotWin::Initialize failed
[0507/185748.111:ERROR:process_reader_win.cc(123)] NtOpenThread: {Access Denied} A process has requested access to an object, but has not been granted those access rights. (0xc0000022)
[0507/185748.112:ERROR:exception_snapshot_win.cc(88)] thread ID 6048 not found in process
[0507/185748.112:WARNING:crash_report_exception_handler.cc(62)] ProcessSnapshotWin::Initialize failed
[0508/180858.568:ERROR:process_reader_win.cc(123)] NtOpenThread: {Access Denied} A process has requested access to an object, but has not been granted those access rights. (0xc0000022)
[0508/180858.586:ERROR:exception_snapshot_win.cc(88)] thread ID 10584 not found in process
[0508/180858.586:WARNING:crash_report_exception_handler.cc(62)] ProcessSnapshotWin::Initialize failed
[0509/131717.601:ERROR:process_reader_win.cc(123)] NtOpenThread: {Access Denied} A process has requested access to an object, but has not been granted those access rights. (0xc0000022)
[0509/131717.630:ERROR:exception_snapshot_win.cc(88)] thread ID 1292 not found in process
[0509/131717.630:WARNING:crash_report_exception_handler.cc(62)] ProcessSnapshotWin::Initialize failed
[0509/160544.708:ERROR:prune_crash_reports.cc(34)] PruneCrashReportDatabase: Failed to get pending reports
[0510/154201.770:ERROR:process_reader_win.cc(123)] NtOpenThread: {Access Denied} A process has requested access to an object, but has not been granted those access rights. (0xc0000022)
[0510/154201.795:ERROR:exception_snapshot_win.cc(88)] thread ID 3820 not found in process
[0510/154201.795:WARNING:crash_report_exception_handler.cc(62)] ProcessSnapshotWin::Initialize failed
[0510/232104.810:ERROR:process_reader_win.cc(123)] NtOpenThread: {Access Denied} A process has requested access to an object, but has not been granted those access rights. (0xc0000022)
[0510/232104.821:ERROR:exception_snapshot_win.cc(88)] thread ID 6792 not found in process
[0510/232104.821:WARNING:crash_report_exception_handler.cc(62)] ProcessSnapshotWin::Initialize failed
[0511/142257.656:ERROR:prune_crash_reports.cc(34)] PruneCrashReportDatabase: Failed to get pending reports
[0512/134330.538:ERROR:prune_crash_reports.cc(34)] PruneCrashReportDatabase: Failed to get pending reports
[0512/134614.758:ERROR:prune_crash_reports.cc(34)] PruneCrashReportDatabase: Failed to get pending reports
[0513/141145.050:ERROR:process_reader_win.cc(123)] NtOpenThread: {Access Denied} A process has requested access to an object, but has not been granted those access rights. (0xc0000022)
[0513/141145.082:ERROR:exception_snapshot_win.cc(88)] thread ID 4400 not found in process
[0513/141145.082:WARNING:crash_report_exception_handler.cc(62)] ProcessSnapshotWin::Initialize failed
